------------------ Bukti Sewa Kamar Kost ------------------
Nama Penyewa              : krisna
Alamat Penyewa            : semarang
No HP Penyewa             : 98767483
Fasilitas Kamar           : AC + Kamar Mandi Dalam
Harga Kamar               : 700000
Pembayaran Setiap Tanggal : 10